C:\Users\Wiguna\Documents\NetBeansProjects\aplikasiNew\src\main\java\com\mycompany\aplikasinew\AplikasiNew.java
C:\Users\Wiguna\Documents\NetBeansProjects\aplikasiNew\src\main\java\Authentication\Login.java
C:\Users\Wiguna\Documents\NetBeansProjects\aplikasiNew\src\main\java\Config\KoneksiDB.java
C:\Users\Wiguna\Documents\NetBeansProjects\aplikasiNew\src\main\java\Main\Menu.java
C:\Users\Wiguna\Documents\NetBeansProjects\aplikasiNew\src\main\java\Penilaian\Mamdani.java
C:\Users\Wiguna\Documents\NetBeansProjects\aplikasiNew\src\main\java\Authentication\SignUp.java
C:\Users\Wiguna\Documents\NetBeansProjects\aplikasiNew\src\main\java\Authentication\ProsesLogin.java
C:\Users\Wiguna\Documents\NetBeansProjects\aplikasiNew\src\main\java\Penilaian\Fuzzy.java
C:\Users\Wiguna\Documents\NetBeansProjects\aplikasiNew\src\main\java\Main\info.java
C:\Users\Wiguna\Documents\NetBeansProjects\aplikasiNew\src\main\java\Mahasiswa\qq.java
C:\Users\Wiguna\Documents\NetBeansProjects\aplikasiNew\src\main\java\Mahasiswa\MenuMahasiswa.java
C:\Users\Wiguna\Documents\NetBeansProjects\aplikasiNew\src\main\java\Main\Users.java
C:\Users\Wiguna\Documents\NetBeansProjects\aplikasiNew\src\main\java\Main\Mahasiswa.java
